…
#>  0.050                                                                                           
#>  0.049                                                                                           
#>  0.048                                                                                           
#> 
#> Results of Photometric1
#> 
#>  Plate: Plate 1 - Wavelength: 620
#> 
#>      1.304                                                                                       
#>      0.890                                                                                       
#>      0.548                                                                                       
#>      0.288                                                                                       
read_cg12(file) %>% head()
#> [[1]]
#> # A tibble: 384 × 6
#>          instrument_header   plate wavelength plate_row_int plate_col_int
#>                      <chr>   <chr>      <chr>         <int>         <int>
#> 1  Results of Photometric1 Plate 1        620             1             1
#> 2  Results of Photometric1 Plate 1        620             2             1
#> 3  Results of Photometric1 Plate 1        620             3             1
#> 4  Results of Photometric1 Plate 1        620             4             1
#> 5  Results of Photometric1 Plate 1        620             5             1
#> 6  Results of Photometric1 Plate 1        620             6             1
#> 7  Results of Photometric1 Plate 1        620             7             1
#> 8  Results of Photometric1 Plate 1        620             8             1
#> 9  Results of Photometric1 Plate 1        620             9             1
#> 10 Results of Photometric1 Plate 1        620            10             1
#> # ... with 374 more rows, and 1 more variables: measurment <dbl>
#> 
#> [[2]]
#> # A tibble: 384 × 6
#>          instrument_header   plate wavelength plate_row_int plate_col_int
#>                      <chr>   <chr>      <chr>         <int>         <int>
#> 1  Results of Photometric1 Plate 1        620             1             1
#> 2  Results of Photometric1 Plate 1        620             2             1
#> 3  Results of Photometric1 Plate 1        620             3             1
#> 4  Results of Photometric1 Plate 1        620             4             1
#> 5  Results of Photometric1 Plate 1        620             5             1
#> 6  Results of Photometric1 Plate 1        620             6             1
#> 7  Results of Photometric1 Plate 1        620             7             1
#> 8  Results of Photometric1 Plate 1        620             8             1
#> 9  Results of Photometric1 Plate 1        620             9             1
#> 10 Results of Photometric1 Plate 1        620            10             1
#> # ... with 374 more rows, and 1 more variables: measurment <dbl>
#> 
#> [[3]]
#> # A tibble: 384 × 6
#>          instrument_header   plate wavelength plate_row_int plate_col_int
#>                      <chr>   <chr>      <chr>         <int>         <int>
#> 1  Results of Photometric1 Plate 1        620             1             1
#> 2  Results of Photometric1 Plate 1        620             2             1
#> 3  Results of Photometric1 Plate 1        620             3             1
#> 4  Results of Photometric1 Plate 1        620             4             1
#> 5  Results of Photometric1 Plate 1        620             5             1
#> 6  Results of Photometric1 Plate 1        620             6             1
#> 7  Results of Photometric1 Plate 1        620             7             1
#> 8  Results of Photometric1 Plate 1        620             8             1
#> 9  Results of Photometric1 Plate 1        620             9             1
#> 10 Results of Photometric1 Plate 1        620            10             1
#> # ... with 374 more rows, and 1 more variables: measurment <dbl>
#> 
#> [[4]]
#> # A tibble: 384 × 6
#>          instrument_header   plate wavelength plate_row_int plate_col_int
#>                      <chr>   <chr>      <chr>         <int>         <int>
#> 1  Results of Photometric1 Plate 1        620             1             1
#> 2  Results of Photometric1 Plate 1        620             2             1
#> 3  Results of Photometric1 Plate 1        620             3             1
#> 4  Results of Photometric1 Plate 1        620             4             1
#> 5  Results of Photometric1 Plate 1        620             5             1
#> 6  Results of Photometric1 Plate 1        620             6             1
#> 7  Results of Photometric1 Plate 1        620             7             1
#> 8  Results of Photometric1 Plate 1        620             8             1
#> 9  Results of Photometric1 Plate 1        620             9             1
#> 10 Results of Photometric1 Plate 1        620            10             1
#> # ... with 374 more rows, and 1 more variables: measurment <dbl>
#> 
#> [[5]]
#> # A tibble: 384 × 6
#>          instrument_header   plate wavelength plate_row_int plate_col_int
#>                      <chr>   <chr>      <chr>         <int>         <int>
#> 1  Results of Photometric1 Plate 1        620             1             1
#> 2  Results of Photometric1 Plate 1        620             2             1
#> 3  Results of Photometric1 Plate 1        620             3             1
#> 4  Results of Photometric1 Plate 1        620             4             1
#> 5  Results of Photometric1 Plate 1        620             5             1
#> 6  Results of Photometric1 Plate 1        620             6             1
#> 7  Results of Photometric1 Plate 1        620             7             1
#> 8  Results of Photometric1 Plate 1        620             8             1
#> 9  Results of Photometric1 Plate 1        620             9             1
#> 10 Results of Photometric1 Plate 1        620            10             1
#> # ... with 374 more rows, and 1 more variables: measurment <dbl>
#> 
#> [[6]]
#> # A tibble: 384 × 6
#>          instrument_header   plate wavelength plate_row_int plate_col_int
#>                      <chr>   <chr>      <chr>         <int>         <int>
#> 1  Results of Photometric1 Plate 1        620             1             1
#> 2  Results of Photometric1 Plate 1        620             2             1
#> 3  Results of Photometric1 Plate 1        620             3             1
#> 4  Results of Photometric1 Plate 1        620             4             1
#> 5  Results of Photometric1 Plate 1        620             5             1
#> 6  Results of Photometric1 Plate 1        620             6             1
#> 7  Results of Photometric1 Plate 1        620             7             1
#> 8  Results of Photometric1 Plate 1        620             8             1
#> 9  Results of Photometric1 Plate 1        620             9             1
#> 10 Results of Photometric1 Plate 1        620            10             1
#> # ... with 374 more rows, and 1 more variables: measurment <dbl>
read_cg12(file) %>% bind_rows()
#> # A tibble: 2,304 × 6
#>          instrument_header   plate wavelength plate_row_int plate_col_int
#>                      <chr>   <chr>      <chr>         <int>         <int>
#> 1  Results of Photometric1 Plate 1        620             1             1
#> 2  Results of Photometric1 Plate 1        620             2             1
#> 3  Results of Photometric1 Plate 1        620             3             1
#> 4  Results of Photometric1 Plate 1        620             4             1
#> 5  Results of Photometric1 Plate 1        620             5             1
#> 6  Results of Photometric1 Plate 1        620             6             1
#> 7  Results of Photometric1 Plate 1        620             7             1
#> 8  Results of Photometric1 Plate 1        620             8             1
#> 9  Results of Photometric1 Plate 1        620             9             1
#> 10 Results of Photometric1 Plate 1        620            10             1
#> # ... with 2,294 more rows, and 1 more variables: measurment <dbl>
```
…
#>  0.247   0.242   0.243   0.231   0.228   0.216   0.208   0.274   0.295   0.272   0.259   0.255   0.398   0.384   0.220   0.209   0.211   0.211   0.230   0.245   0.295   0.289   0.303   0.285
#>  0.248   0.363   0.237   0.365   0.237   0.370   0.226   0.272   0.293   0.415   0.267   0.403   0.432   0.522   0.221   0.339   0.218   0.349   0.258   0.338   0.297   0.442   0.273   0.431
read_cg12(file) %>% head()
#> Warning: 4 parsing failures.
#> row col   expected                                     actual         file
#>  17  X1 a double   ------------------------------------------ literal data
#>  17  -- 25 columns 1 columns                                  literal data
#>  18  X1 a double   Results of Photometric1                    literal data
#>  18  -- 25 columns 1 columns                                  literal data
#> Warning: 2 parsing failures.
#> row col   expected                  actual         file
#>   9  X1 a double   Results of Photometric1 literal data
#>   9  -- 13 columns 1 columns               literal data
#> [[1]]
#> # A tibble: 384 × 6
#>          instrument_header  plate wavelength plate_row_int plate_col_int
#>                      <chr>  <chr>      <chr>         <int>         <int>
#> 1  Results of Photometric1 Plate1        620             1             1
#> 2  Results of Photometric1 Plate1        620             2             1
#> 3  Results of Photometric1 Plate1        620             3             1
#> 4  Results of Photometric1 Plate1        620             4             1
#> 5  Results of Photometric1 Plate1        620             5             1
#> 6  Results of Photometric1 Plate1        620             6             1
#> 7  Results of Photometric1 Plate1        620             7             1
#> 8  Results of Photometric1 Plate1        620             8             1
#> 9  Results of Photometric1 Plate1        620             9             1
#> 10 Results of Photometric1 Plate1        620            10             1
#> # ... with 374 more rows, and 1 more variables: measurment <dbl>
#> 
#> [[2]]
#> # A tibble: 384 × 6
#>          instrument_header  plate wavelength plate_row_int plate_col_int
#>                      <chr>  <chr>      <chr>         <int>         <int>
#> 1  Results of Photometric1 Plate1        620             1             1
#> 2  Results of Photometric1 Plate1        620             2             1
#> 3  Results of Photometric1 Plate1        620             3             1
#> 4  Results of Photometric1 Plate1        620             4             1
#> 5  Results of Photometric1 Plate1        620             5             1
#> 6  Results of Photometric1 Plate1        620             6             1
#> 7  Results of Photometric1 Plate1        620             7             1
#> 8  Results of Photometric1 Plate1        620             8             1
#> 9  Results of Photometric1 Plate1        620             9             1
#> 10 Results of Photometric1 Plate1        620            10             1
#> # ... with 374 more rows, and 1 more variables: measurment <dbl>
#> 
#> [[3]]
#> # A tibble: 384 × 6
#>          instrument_header  plate wavelength plate_row_int plate_col_int
#>                      <chr>  <chr>      <chr>         <int>         <int>
#> 1  Results of Photometric1 Plate1        620             1             1
#> 2  Results of Photometric1 Plate1        620             2             1
#> 3  Results of Photometric1 Plate1        620             3             1
#> 4  Results of Photometric1 Plate1        620             4             1
#> 5  Results of Photometric1 Plate1        620             5             1
#> 6  Results of Photometric1 Plate1        620             6             1
#> 7  Results of Photometric1 Plate1        620             7             1
#> 8  Results of Photometric1 Plate1        620             8             1
#> 9  Results of Photometric1 Plate1        620             9             1
#> 10 Results of Photometric1 Plate1        620            10             1
#> # ... with 374 more rows, and 1 more variables: measurment <dbl>
#> 
#> [[4]]
#> # A tibble: 384 × 6
#>          instrument_header  plate wavelength plate_row_int plate_col_int
#>                      <chr>  <chr>      <chr>         <int>         <int>
#> 1  Results of Photometric1 Plate1        620             1             1
#> 2  Results of Photometric1 Plate1        620             2             1
#> 3  Results of Photometric1 Plate1        620             3             1
#> 4  Results of Photometric1 Plate1        620             4             1
#> 5  Results of Photometric1 Plate1        620             5             1
#> 6  Results of Photometric1 Plate1        620             6             1
#> 7  Results of Photometric1 Plate1        620             7             1
#> 8  Results of Photometric1 Plate1        620             8             1
#> 9  Results of Photometric1 Plate1        620             9             1
#> 10 Results of Photometric1 Plate1        620            10             1
#> # ... with 374 more rows, and 1 more variables: measurment <dbl>
#> 
#> [[5]]
#> # A tibble: 384 × 6
#>          instrument_header  plate wavelength plate_row_int plate_col_int
#>                      <chr>  <chr>      <chr>         <int>         <int>
#> 1  Results of Photometric1 Plate1        620             1             1
#> 2  Results of Photometric1 Plate1        620             2             1
#> 3  Results of Photometric1 Plate1        620             3             1
#> 4  Results of Photometric1 Plate1        620             4             1
#> 5  Results of Photometric1 Plate1        620             5             1
#> 6  Results of Photometric1 Plate1        620             6             1
#> 7  Results of Photometric1 Plate1        620             7             1
#> 8  Results of Photometric1 Plate1        620             8             1
#> 9  Results of Photometric1 Plate1        620             9             1
#> 10 Results of Photometric1 Plate1        620            10             1
#> # ... with 374 more rows, and 1 more variables: measurment <dbl>
#> 
#> [[6]]
#> # A tibble: 384 × 6
#>          instrument_header  plate wavelength plate_row_int plate_col_int
#>                      <chr>  <chr>      <chr>         <int>         <int>
#> 1  Results of Photometric1 Plate1        620             1             1
#> 2  Results of Photometric1 Plate1        620             2             1
#> 3  Results of Photometric1 Plate1        620             3             1
#> 4  Results of Photometric1 Plate1        620             4             1
#> 5  Results of Photometric1 Plate1        620             5             1
#> 6  Results of Photometric1 Plate1        620             6             1
#> 7  Results of Photometric1 Plate1        620             7             1
#> 8  Results of Photometric1 Plate1        620             8             1
#> 9  Results of Photometric1 Plate1        620             9             1
#> 10 Results of Photometric1 Plate1        620            10             1
#> # ... with 374 more rows, and 1 more variables: measurment <dbl>
read_cg12(file) %>% bind_rows()
#> Warning: 4 parsing failures.
#> row col   expected                                     actual         file
#>  17  X1 a double   ------------------------------------------ literal data
#>  17  -- 25 columns 1 columns                                  literal data
#>  18  X1 a double   Results of Photometric1                    literal data
#>  18  -- 25 columns 1 columns                                  literal data

#> Warning: 2 parsing failures.
#> row col   expected                  actual         file
#>   9  X1 a double   Results of Photometric1 literal data
#>   9  -- 13 columns 1 columns               literal data
#> # A tibble: 310,236 × 8
#>          instrument_header  plate wavelength plate_row_int plate_col_int
#>                      <chr>  <chr>      <chr>         <int>         <int>
#> 1  Results of Photometric1 Plate1        620             1             1
#> 2  Results of Photometric1 Plate1        620             2             1
#> 3  Results of Photometric1 Plate1        620             3             1
#> 4  Results of Photometric1 Plate1        620             4             1
#> 5  Results of Photometric1 Plate1        620             5             1
#> 6  Results of Photometric1 Plate1        620             6             1
#> 7  Results of Photometric1 Plate1        620             7             1
#> 8  Results of Photometric1 Plate1        620             8             1
#> 9  Results of Photometric1 Plate1        620             9             1
#> 10 Results of Photometric1 Plate1        620            10             1
#> # ... with 310,226 more rows, and 3 more variables: measurment <dbl>,
#> #   date <chr>, time <chr>
```
…
#> 
#> Results of Photometric1
#> 
#>  Plate: S2L2; Date: 2017/4/21; Time: 16:35:57 - Wavelength: 620
#> 
#>  0.084   0.084   0.085   0.084   0.084   0.085   0.084   0.085   0.086   0.088   0.085   0.086
#>  0.084   0.086   0.085   0.084   0.086   0.086   0.084   0.085   0.085   0.085   0.086   0.084
#>  0.084   0.085   0.085   0.084   0.085   0.084   0.085   0.086   0.086   0.088   0.085   0.086
#>  0.086   0.084   0.085   0.085   0.084   0.085   0.085   0.085   0.085   0.086   0.087   0.086
#>  0.086   0.085   0.085   0.085   0.084   0.085   0.085   0.086   0.085   0.086   0.087   0.085
#>  0.086   0.085   0.086   0.084   0.086   0.086   0.086   0.086   0.085   0.087   0.086   0.085
#>  0.086   0.085   0.085   0.085   0.085   0.087   0.085   0.086   0.085   0.085   0.086   0.086
read_cg12(file) %>% head()
#> [[1]]
#> # A tibble: 96 × 8
#>          instrument_header plate      date     time wavelength
#>                      <chr> <chr>     <chr>    <chr>      <chr>
#> 1  Results of Photometric1  S1L1 2017/4/21 16:32:56        620
#> 2  Results of Photometric1  S1L1 2017/4/21 16:32:56        620
#> 3  Results of Photometric1  S1L1 2017/4/21 16:32:56        620
#> 4  Results of Photometric1  S1L1 2017/4/21 16:32:56        620
#> 5  Results of Photometric1  S1L1 2017/4/21 16:32:56        620
#> 6  Results of Photometric1  S1L1 2017/4/21 16:32:56        620
#> 7  Results of Photometric1  S1L1 2017/4/21 16:32:56        620
#> 8  Results of Photometric1  S1L1 2017/4/21 16:32:56        620
#> 9  Results of Photometric1  S1L1 2017/4/21 16:32:56        620
#> 10 Results of Photometric1  S1L1 2017/4/21 16:32:56        620
#> # ... with 86 more rows, and 3 more variables: plate_row_int <int>,
#> #   plate_col_int <int>, measurment <dbl>
#> 
#> [[2]]
#> # A tibble: 96 × 8
#>          instrument_header plate      date     time wavelength
#>                      <chr> <chr>     <chr>    <chr>      <chr>
#> 1  Results of Photometric1  S1L2 2017/4/21 16:33:58        620
#> 2  Results of Photometric1  S1L2 2017/4/21 16:33:58        620
#> 3  Results of Photometric1  S1L2 2017/4/21 16:33:58        620
#> 4  Results of Photometric1  S1L2 2017/4/21 16:33:58        620
#> 5  Results of Photometric1  S1L2 2017/4/21 16:33:58        620
#> 6  Results of Photometric1  S1L2 2017/4/21 16:33:58        620
#> 7  Results of Photometric1  S1L2 2017/4/21 16:33:58        620
#> 8  Results of Photometric1  S1L2 2017/4/21 16:33:58        620
#> 9  Results of Photometric1  S1L2 2017/4/21 16:33:58        620
#> 10 Results of Photometric1  S1L2 2017/4/21 16:33:58        620
#> # ... with 86 more rows, and 3 more variables: plate_row_int <int>,
#> #   plate_col_int <int>, measurment <dbl>
…
